[
    {
        "filename": "advice-10",
        "adviceID": 10,
        "title": "Advice for public",
        "summary": "Advice for public",
        "image": "null"
    },
    {
        "filename": "advice-20",
        "adviceID": 20,
        "title": "Reduce your risk of coronavirus infection",
        "summary": "Reduce your risk of coronavirus infection",
        "image": "null"
    },
    {
        "filename": "advice-30",
        "adviceID": 30,
        "title": "Protect yourself and others from getting sick",
        "summary": "Protect yourself and others from getting sick",
        "image": "null"
    },
    {
        "filename": "advice-40",
        "adviceID": 40,
        "title": "When to use a mask",
        "summary": "When to use a mask",
        "image": "null"
    },
    {
        "filename": "advice-41",
        "adviceID": 41,
        "title": "Put on, use, take off add dispose of a masks",
        "summary": "Put on, use, take off add dispose of a masks",
        "image": "null"
    },
    {
        "filename": "advice-50",
        "adviceID": 50,
        "title": "Practice food safety",
        "summary": "Practice food safety",
        "image": "null"
    },
    {
        "filename": "advice-60",
        "adviceID": 60,
        "title": "Shopping/Working in wet markets in China and Southeast Asia",
        "summary": "Shopping/Working in wet markets in China and Southeast Asia",
        "image": "null"
    },
    {
        "filename": "advice-70",
        "adviceID": 70,
        "title": "Stay healthy while travelling",
        "summary": "Stay healthy while travelling",
        "image": "null"
    },
    {
        "filename": "advice-80",
        "adviceID": 80,
        "title": "Corona symptoms",
        "summary": "Corona symptoms",
        "image": "null"
    },
    {
        "filename": "advice-90",
        "adviceID": 90,
        "title": "Coping with stress during the COVID-19 outbreak",
        "summary": "Coping with stress during the COVID-19 outbreak",
        "image": "null"
    },
    {
        "filename": "advice-100",
        "adviceID": 100,
        "title": "Helping children cope with stress during the COVID-19 outbreak",
        "summary": "Helping children cope with stress during the COVID-19 outbreak",
        "image": "null"
    }
]
